…
Created new variable `average_immunity` by taking the average of the three variables `hepatitis_b`, `polio`, `diphtheria`. Saved this as new data frame named `immune`.

```r
immune <- life_expectancy %>%
  select(country, year, status, gdp, population, under_five_deaths, hepatitis_b, polio, diphtheria) %>%
  mutate(average_immunity = (hepatitis_b + polio + diphtheria) / 3) %>%
  mutate(average_immunity = round(average_immunity, digits = 0)) %>%
  select(country, status, year, gdp, population, under_five_deaths, average_immunity)

immune
```

```
## # A tibble: 2,739 × 7
##    country     status    year   gdp population under_five_deat… average_immunity
##    <chr>       <chr>    <dbl> <dbl>      <dbl>            <dbl>            <dbl>
##  1 Afghanistan Develop…  2015 584.    33736494               83               45
##  2 Afghanistan Develop…  2014 613.      327582               86               61
##  3 Afghanistan Develop…  2013 632.    31731688               89               63
##  4 Afghanistan Develop…  2012 670.     3696958               93               67
##  5 Afghanistan Develop…  2011  63.5    2978599               97               68
##  6 Afghanistan Develop…  2010 553.     2883167              102               66
##  7 Afghanistan Develop…  2009 446.      284331              106               63
##  8 Afghanistan Develop…  2008 373.     2729431              110               64
##  9 Afghanistan Develop…  2007 370.    26616792              113               63
## 10 Afghanistan Develop…  2006 273.     2589345              116               60
## # … with 2,729 more rows
```
…
